…
tidy_GDP_for_graph1 %>% 
  select(Country, components_of_GDP, Year, value) %>% 
  pivot_wider(names_from = components_of_GDP, values_from = value) %>% 
  janitor::clean_names() %>% 
  mutate(
    net_exports = exports - imports,
    gdp = household_expenditure + government_expenditure + gross_capital_formation + net_exports
    ) -> wider_gdp

wider_gdp %>% 
  select(country, year, gdp)

## # A tibble: 48 × 3
##    country  year   gdp
##    <chr>   <int> <dbl>
##  1 Germany  1972 1709.
##  2 Germany  1975 1780.
##  3 Germany  1978 1991.
##  4 Germany  1981 2091.
##  5 Germany  1984 2158.
##  6 Germany  1987 2303.
##  7 Germany  1990 2591.
##  8 Germany  1993 2748.
##  9 Germany  1996 2887.
## 10 Germany  1999 3053.
## # … with 38 more rows
## # ℹ Use `print(n = ...)` to see more rows

tidy_GDP_data_for_join = tidy_GDP_data%>% 
  filter(IndicatorName=="Gross Domestic Product (GDP)") %>% 
  mutate(Year=as.integer(Year)) %>% 
  select(Country,Year,value)

tidy_GDP_data_comparison=left_join(wider_gdp,tidy_GDP_data_for_join,by=c("country"="Country","year"="Year"))

tidy_GDP_data_comparison %>% 
  mutate(percentage_change=(value-gdp)/value) %>% 
  select(country,year,gdp,value,percentage_change)

## # A tibble: 48 × 5
##    country  year   gdp value percentage_change
##    <chr>   <int> <dbl> <dbl>             <dbl>
##  1 Germany  1972 1709. 1650.          -0.0356 
##  2 Germany  1975 1780. 1729.          -0.0293 
##  3 Germany  1978 1991. 1932.          -0.0305 
##  4 Germany  1981 2091. 2051.          -0.0192 
##  5 Germany  1984 2158. 2134.          -0.0114 
##  6 Germany  1987 2303. 2265.          -0.0168 
##  7 Germany  1990 2591. 2569.          -0.00877
##  8 Germany  1993 2748. 2725.          -0.00811
##  9 Germany  1996 2887. 2864.          -0.00787
## 10 Germany  1999 3053. 3034.          -0.00613
## # … with 38 more rows
## # ℹ Use `print(n = ...)` to see more rows
…
